{
  "name": "mta",
  "title": "Mage the Awakening 2e",
  "description": "2nd edition of Mage the Awakening by White Wolf, set in the Chronicles of Darkness.",
  "version": "0.5.0",
  "author": "SoulCake",
  "minimumCoreVersion": "0.6.2",
  "compatibleCoreVersion": "0.7.9",
  "url": "https://gitlab.com/MarlQ/mta",
  "manifest": "https://gitlab.com/MarlQ/mta/-/raw/master/system.json",
  "download": "https://gitlab.com/MarlQ/mta/-/archive/master/mta-master.zip",
  "esmodules": ["module/mta.js"],
  "styles": ["style.css"],
  "packs": [],
  "initiative": "1d10 + @initiativeMod",
  "gridDistance": 5,
  "gridUnits": "m",
  "primaryTokenAttribute": "health"
}
